{
    "NODE_ENV": "development",
    "rabbitmq": {
        "user": "iwf",
        "password": "iwf",
        "serverip": "192.168.1.154",
        "queue": "iwf-etl",
        "port": "5671",
        "exchange": "iwf-etl-exchange",
        "secure": true
    },
    "sslcert": "C:/nginx/conf/spcert.pem",
    "sslkey": "C:/nginx/conf/spkey.pem",
    "database": {
        "src": {
            "user": "std_iwf_dev",
            "password": "std_iwf_dev",
            "connectString": "192.168.1.16:1521/wforcl"
        },
        "dest": {
            "user": "std_iwf_dev",
            "password": "std_iwf_dev",
            "connectString": "192.168.1.16:1521/wforcl"
        },
        "DateFormat": "MM-DD-YYYY"
    }
}